{
  "$schema": "../../node_modules/nx/schemas/project-schema.json",
  "sourceRoot": "apps/taranta-poc/src",
  "projectType": "application",
  "targets": {
    "build": {
      "executor": "@nrwl/webpack:webpack",
      "outputs": ["{options.outputPath}"],
      "defaultConfiguration": "production",
      "options": {
        "compiler": "babel",
        "outputPath": "dist/apps/taranta-poc",
        "index": "apps/taranta-poc/src/index.html",
        "baseHref": "/",
        "main": "apps/taranta-poc/src/main.tsx",
        "polyfills": "apps/taranta-poc/src/polyfills.ts",
        "tsConfig": "apps/taranta-poc/tsconfig.app.json",
        "assets": [
          "apps/taranta-poc/src/favicon.ico",
          "apps/taranta-poc/src/assets"
        ],
        "styles": ["apps/taranta-poc/src/styles.css"],
        "scripts": [],
        "webpackConfig": "@nrwl/react/plugins/webpack"
      },
      "configurations": {
        "development": {
          "extractLicenses": false,
          "optimization": false,
          "sourceMap": true,
          "vendorChunk": true
        },
        "production": {
          "fileReplacements": [
            {
              "replace": "apps/taranta-poc/src/environments/environment.ts",
              "with": "apps/taranta-poc/src/environments/environment.prod.ts"
            }
          ],
          "optimization": true,
          "outputHashing": "all",
          "sourceMap": false,
          "namedChunks": false,
          "extractLicenses": true,
          "vendorChunk": false
        }
      }
    },
    "serve": {
      "executor": "@nrwl/webpack:dev-server",
      "defaultConfiguration": "development",
      "options": {
        "buildTarget": "taranta-poc:build",
        "hmr": true
      },
      "configurations": {
        "development": {
          "buildTarget": "taranta-poc:build:development"
        },
        "production": {
          "buildTarget": "taranta-poc:build:production",
          "hmr": false
        }
      }
    },
    "lint": {
      "executor": "@nrwl/linter:eslint",
      "outputs": ["{options.outputFile}"],
      "options": {
        "lintFilePatterns": ["apps/taranta-poc/**/*.{ts,tsx,js,jsx}"]
      }
    },
    "test": {
      "executor": "@nrwl/jest:jest",
      "outputs": ["coverage/apps/taranta-poc"],
      "options": {
        "jestConfig": "apps/taranta-poc/jest.config.ts",
        "passWithNoTests": true
      }
    }
  },
  "tags": []
}
